{
    "index": {
        "download_fdroid": "Iscàrriga F-Droid", 
        "gpg_signature": "Firma PGP", 
        "introduction": "F-Droid est unu catàlogu installàbile de aplicatziones a mitza lìbera (Open Source Software) pro sos sistemas operativos Android. S'aplicatzione permitit de esplorare, installare, e gestire sos agiornamentos pro su dispositivu bostru in manera fàtzile.", 
        "screenshot": "Ischermadas de s'aplicatzione de F-Droid pro Android", 
        "title": "Ite est F-Droid?"
    }, 
    "navigation": {
        "about": "A pitzu de", 
        "browse": "Esplora", 
        "contribute": "Agiuda", 
        "documentation": "Documentos", 
        "forum": "Forum", 
        "issues": "Problemas", 
        "news": "Noas", 
        "repomaker": "Repomaker", 
        "tutorials": "Ghias"
    }, 
    "package": {
        "author": "Autore", 
        "build_metadata": "Metadatos de costrutzione", 
        "changelog": "Cronologia de sas modìficas", 
        "donate": "Dona", 
        "download": "Iscàrriga [file_extension]", 
        "flattr": "Flattr", 
        "gpg_signature": "Firma PGP", 
        "issue_tracker": "Sinnaladore de problemas", 
        "liberapay": "Liberapay", 
        "license": "Litzèntzia", 
        "minimum_android_version": "Custa versione tenet bisòngiu de Android  [android_version]  o prus nou.", 
        "new_in_version": "Nou in sa versione [latest_version]", 
        "packages": "Pachetes", 
        "permissions": "Permissos", 
        "signed_by_developer": "Est compilada e firmada dae s'isvilupadore originale.", 
        "signed_by_fdroid": "Est compilada e firmada dae F-Droid, garantende sa currispondèntzia a <a href=\"[source_code_url]\">custa mitza tar</a>.", 
        "source_code": "Còdighe mitza", 
        "suggest_downloading_via_fdroid": "Fintzas si sos iscarrigamentos de APK sunt disponìbiles inoghe in giosso pro ti lassare n'issèbera, depes ischire chi installende·los in cussa manera no as a retzire notìficas pro sos agiornamentos disponìbiles e chi est una manera prus pagu segura  de iscarrigare. Ti cunsigiamus de installare s'aplicatzione de F-Droid e de impreare cussa.", 
        "technical_info": "Informatziones tècnicas", 
        "version_info": "<b>Versione [package_version]</b> ([package_version_code]) - Annanta su [package_added_date]", 
        "website": "Situ web"
    }, 
    "sidebars": {
        "donate": {
            "bank_transfer_name": "Nùmene", 
            "bitcoin_alt": "Dona impreende Bitcoin", 
            "flattr_alt": "Dona impreende Flattr", 
            "heading": "Faghe una donatzione", 
            "liberapay_alt": "Dona impreende Liberapay", 
            "paypal_alt": "Dona impreende Paypal", 
            "powered_by_donations": "F-Droid est suportadu dae sas donatziones bostras!", 
            "via_bank_transfer": "Bonìficu bancàriu"
        }, 
        "last_updated": {
            "heading": "Ùrtimu agiornamentu"
        }, 
        "latest_packages": {
            "heading": "Aplicatziones prus noas"
        }, 
        "news": {
            "heading": "Noas"
        }, 
        "search": {
            "heading": "Agata aplicatziones", 
            "noscript": "Pro èssere abilitadu tenet bisòngiu de JavaScript"
        }
    }
}